%YAML 1.1
%TAG !u! tag:unity3d.com,2011:
--- !u!1 &441374134298554610
GameObject:
  m_ObjectHideFlags: 0
  m_CorrespondingSourceObject: {fileID: 0}
  m_PrefabInstance: {fileID: 0}
  m_PrefabAsset: {fileID: 0}
  serializedVersion: 6
  m_Component:
  - component: {fileID: 6206343848745655818}
  - component: {fileID: 925365768558166155}
  - component: {fileID: 4716196554614086829}
  - component: {fileID: 2287142394641368190}
  m_Layer: 0
  m_Name: Przyziemna_Roslina
  m_TagString: hide
  m_Icon: {fileID: 0}
  m_NavMeshLayer: 0
  m_StaticEditorFlags: 0
  m_IsActive: 1
--- !u!4 &6206343848745655818
Transform:
  m_ObjectHideFlags: 0
  m_CorrespondingSourceObject: {fileID: 0}
  m_PrefabInstance: {fileID: 0}
  m_PrefabAsset: {fileID: 0}
  m_GameObject: {fileID: 441374134298554610}
  m_LocalRotation: {x: 0, y: 0, z: 0, w: 1}
  m_LocalPosition: {x: -0.029384, y: -1.9777, z: 0}
  m_LocalScale: {x: 1, y: 1, z: 1}
  m_Children: []
  m_Father: {fileID: 0}
  m_RootOrder: 0
  m_LocalEulerAnglesHint: {x: 0, y: 0, z: 0}
--- !u!212 &925365768558166155
SpriteRenderer:
  m_ObjectHideFlags: 0
  m_CorrespondingSourceObject: {fileID: 0}
  m_PrefabInstance: {fileID: 0}
  m_PrefabAsset: {fileID: 0}
  m_GameObject: {fileID: 441374134298554610}
  m_Enabled: 1
  m_CastShadows: 0
  m_ReceiveShadows: 0
  m_DynamicOccludee: 1
  m_MotionVectors: 1
  m_LightProbeUsage: 1
  m_ReflectionProbeUsage: 1
  m_RenderingLayerMask: 1
  m_RendererPriority: 0
  m_Materials:
  - {fileID: 10754, guid: 0000000000000000f000000000000000, type: 0}
  m_StaticBatchInfo:
    firstSubMesh: 0
    subMeshCount: 0
  m_StaticBatchRoot: {fileID: 0}
  m_ProbeAnchor: {fileID: 0}
  m_LightProbeVolumeOverride: {fileID: 0}
  m_ScaleInLightmap: 1
  m_PreserveUVs: 0
  m_IgnoreNormalsForChartDetection: 0
  m_ImportantGI: 0
  m_StitchLightmapSeams: 0
  m_SelectedEditorRenderState: 0
  m_MinimumChartSize: 4
  m_AutoUVMaxDistance: 0.5
  m_AutoUVMaxAngle: 89
  m_LightmapParameters: {fileID: 0}
  m_SortingLayerID: 785916171
  m_SortingLayer: 2
  m_SortingOrder: 2
  m_Sprite: {fileID: 21300000, guid: 66917b8bebf90d64d8f4b887f77e9288, type: 3}
  m_Color: {r: 1, g: 1, b: 1, a: 1}
  m_FlipX: 0
  m_FlipY: 0
  m_DrawMode: 0
  m_Size: {x: 1.34, y: 0.86}
  m_AdaptiveModeThreshold: 0.5
  m_SpriteTileMode: 0
  m_WasSpriteAssigned: 1
  m_MaskInteraction: 0
  m_SpriteSortPoint: 0
--- !u!60 &4716196554614086829
PolygonCollider2D:
  m_ObjectHideFlags: 0
  m_CorrespondingSourceObject: {fileID: 0}
  m_PrefabInstance: {fileID: 0}
  m_PrefabAsset: {fileID: 0}
  m_GameObject: {fileID: 441374134298554610}
  m_Enabled: 1
  m_Density: 1
  m_Material: {fileID: 0}
  m_IsTrigger: 1
  m_UsedByEffector: 0
  m_UsedByComposite: 0
  m_Offset: {x: 0, y: 0}
  m_SpriteTilingProperty:
    border: {x: 0, y: 0, z: 0, w: 0}
    pivot: {x: 0.5, y: 0.15}
    oldSize: {x: 1.34, y: 0.86}
    newSize: {x: 1.34, y: 0.86}
    adaptiveTilingThreshold: 0.5
    drawMode: 0
    adaptiveTiling: 0
  m_AutoTiling: 0
  m_Points:
    m_Paths:
    - - {x: 0.5337471, y: -0.08928112}
      - {x: 0.60374707, y: -0.00928112}
      - {x: 0.5837471, y: 0.14071888}
      - {x: 0.6337471, y: 0.09071888}
      - {x: 0.67374706, y: 0.16071887}
      - {x: 0.67374706, y: 0.30071887}
      - {x: 0.5037471, y: 0.41071886}
      - {x: 0.4737471, y: 0.48071888}
      - {x: 0.4237471, y: 0.5607189}
      - {x: 0.3937471, y: 0.68071884}
      - {x: 0.3037471, y: 0.7207188}
      - {x: 0.17374709, y: 0.7207188}
      - {x: 0.0037471007, y: 0.6607188}
      - {x: -0.0762529, y: 0.7107188}
      - {x: -0.20625289, y: 0.7007188}
      - {x: -0.32625288, y: 0.7107188}
      - {x: -0.4362529, y: 0.59071887}
      - {x: -0.47625288, y: 0.44071886}
      - {x: -0.65625286, y: 0.34071887}
      - {x: -0.6662529, y: 0.32071888}
      - {x: -0.6662529, y: 0.19071887}
      - {x: -0.6262529, y: 0.09071888}
      - {x: -0.5762529, y: 0.03071888}
      - {x: -0.4562529, y: -0.069281116}
      - {x: -0.38625288, y: -0.09928112}
      - {x: -0.1762529, y: -0.109281115}
      - {x: -0.12625289, y: -0.12928112}
      - {x: 0.0837471, y: -0.12928112}
      - {x: 0.1137471, y: -0.11928112}
      - {x: 0.2837471, y: -0.12928112}
      - {x: 0.4737471, y: -0.109281115}
--- !u!114 &2287142394641368190
MonoBehaviour:
  m_ObjectHideFlags: 0
  m_CorrespondingSourceObject: {fileID: 0}
  m_PrefabInstance: {fileID: 0}
  m_PrefabAsset: {fileID: 0}
  m_GameObject: {fileID: 441374134298554610}
  m_Enabled: 1
  m_EditorHideFlags: 0
  m_Script: {fileID: 11500000, guid: 55b14aaa7d40ceb489b04d5f08c4d99a, type: 3}
  m_Name: 
  m_EditorClassIdentifier: 
  sprites:
  - {fileID: 21300000, guid: 66917b8bebf90d64d8f4b887f77e9288, type: 3}
  - {fileID: 21300000, guid: be799525f51a56f44ab53aa0feb47766, type: 3}
  - {fileID: 21300000, guid: f4824d6c3cb337949a77a33ea2c80bf6, type: 3}
  hits: 0
  sr: {fileID: 925365768558166155}
